
<svg width="169px" height="63px" viewBox="0 0 169 63" version="1.1" xmlns="http://www.w3.org/2000/svg" xmlns:xlink="http://www.w3.org/1999/xlink">
    <defs>
        <polygon id="path-1" points="0 63 168.738864 63 168.738864 0.376983871 0 0.376983871"></polygon>
    </defs>
    <g id="Page-1" stroke="none" stroke-width="1" fill="none" fill-rule="evenodd">
        <g id="Namai-" transform="translate(-633.000000, -24.000000)">
            <g id="Group-19" transform="translate(633.000000, 24.000000)">
                <polygon id="Fill-1" fill="#30475E" points="57.1382576 1 50.4880383 9.79885736 43.8607456 1 43 1 43 17 45.5358852 17 45.5358852 7.10420419 50.0803429 13.0424766 50.9186603 13.0424766 55.4636164 7.12805067 55.4636164 17 58 17 58 1"></polygon>
                <path d="M71.0631068,1 L64,17 L66.7427184,17 L67.8834951,14.3778799 L75.0927387,14.3778799 L76.2335154,17 L79,17 L71.9373989,1 L71.0631068,1 Z M71.5,5.69726138 L74.1456311,12.2073527 L68.8058252,12.2073527 L71.5,5.69726138 Z" id="Fill-2" fill="#30475E"></path>
                <g id="Group-18">
                    <path d="M87.1671967,2.93722258 L87.1671967,8.22922258 L90.3924497,8.22922258 C91.3209316,8.22922258 92.0330732,7.98585968 92.5298925,7.49811774 C93.0272208,7.01037581 93.2756304,6.37631129 93.2756304,5.59541613 C93.2756304,4.81502903 93.0272208,4.17740806 92.5298925,3.6815371 C92.0330732,3.18515806 91.3209316,2.93722258 90.3924497,2.93722258 L87.1671967,2.93722258 Z M90.4413172,0.644835484 C91.2720642,0.644835484 92.0249286,0.763214516 92.7009286,0.998956452 C93.3769286,1.23419032 93.9557027,1.57154516 94.4357238,2.0105129 C94.9162539,2.44998871 95.2868322,2.96973871 95.5479678,3.5712871 C95.8080852,4.17334355 95.9389075,4.83941613 95.9389075,5.5715371 C95.9389075,6.64456935 95.6614828,7.57534355 95.1081605,8.36385968 C94.5543292,9.15186774 93.7887389,9.73360161 92.8113895,10.107029 L97.6737027,16.7403194 L94.7172208,16.7403194 L90.0992449,10.5216097 L87.1671967,10.5216097 L87.1671967,16.7403194 L84.5772208,16.7403194 L84.5772208,0.644835484 L90.4413172,0.644835484 Z" id="Fill-3" fill="#30475E"></path>
                    <mask id="mask-2" fill="white">
                        <use xlink:href="#path-1"></use>
                    </mask>
                    <g id="Clip-6"></g>
                    <polygon id="Fill-5" fill="#30475E" mask="url(#mask-2)" points="102.926599 16.7402177 105.516575 16.7402177 105.516575 0.644733871 102.926599 0.644733871"></polygon>
                    <path d="M125.57657,10.2292694 C125.57657,11.1722371 125.462037,11.9770113 125.234498,12.6435919 C125.00594,13.3101726 124.712736,13.8995274 124.354883,14.4111484 C123.996522,14.9232774 123.593365,15.3790113 123.145922,15.7773339 C122.697461,16.1756565 122.254091,16.5785516 121.813266,16.9844952 C121.520061,17.2446242 121.284377,17.4925597 121.105196,17.7283016 C120.925507,17.9640435 120.835916,18.2439871 120.835916,18.5696565 C120.835916,19.1712048 121.194787,19.471979 121.91151,19.471979 C122.073892,19.471979 122.254091,19.4552129 122.448543,19.4232048 C122.644522,19.3901806 122.855772,19.3581726 123.084329,19.3251484 L123.084329,21.0815274 C122.823702,21.1628177 122.526425,21.235471 122.192498,21.3010113 C121.858061,21.3655355 121.496136,21.3980516 121.105196,21.3980516 C120.274449,21.3980516 119.606085,21.219721 119.101121,20.8620435 C118.596157,20.5043661 118.344184,19.9673419 118.344184,19.2524952 C118.344184,18.7972694 118.450064,18.3867532 118.661823,18.0209468 C118.873582,17.6551403 119.182567,17.3015274 119.590305,16.9601081 C119.459483,16.9758581 119.337823,16.9885597 119.223799,16.9961806 C119.109775,17.0043097 118.987606,17.0088823 118.857293,17.0088823 C117.9451,17.0088823 117.089919,16.8457935 116.291751,16.5211403 C115.493073,16.195979 114.801293,15.7412613 114.214883,15.1554629 C113.627964,14.5701726 113.167796,13.8593903 112.834377,13.0215919 C112.500449,12.1848097 112.333486,11.2540355 112.333486,10.2292694 L112.333486,0.645140323 L114.923461,0.645140323 L114.923461,10.399979 C114.923461,11.0665597 115.02476,11.659979 115.228883,12.1802371 C115.432498,12.7004952 115.717558,13.1430194 116.084064,13.5093339 C116.45057,13.8751403 116.874088,14.1555919 117.354618,14.3506887 C117.834639,14.5457855 118.359964,14.6433339 118.930085,14.6433339 C119.500205,14.6433339 120.030112,14.5457855 120.518787,14.3506887 C121.006952,14.1555919 121.434543,13.8751403 121.801558,13.5093339 C122.168064,13.1430194 122.456687,12.7004952 122.668955,12.1802371 C122.880205,11.659979 122.986594,11.0665597 122.986594,10.399979 L122.986594,0.645140323 L125.57657,0.645140323 L125.57657,10.2292694 Z" id="Fill-7" fill="#30475E" mask="url(#mask-2)"></path>
                    <path d="M2.589925,28.3404484 L2.589925,33.6324484 L5.84012078,33.6324484 C6.76860271,33.6324484 7.47718102,33.3890855 7.96585572,32.9013435 C8.45453042,32.4136016 8.69835873,31.7795371 8.69835873,30.9986419 C8.69835873,30.2182548 8.45453042,29.5806339 7.96585572,29.0847629 C7.47718102,28.5883839 6.76860271,28.3404484 5.84012078,28.3404484 L2.589925,28.3404484 Z M5.86455452,26.0480613 C6.69479247,26.0480613 7.448675,26.1664403 8.124675,26.4021823 C8.80016596,26.6374161 9.37843102,26.974771 9.85947018,27.4137387 C10.3400003,27.8532145 10.7105786,28.3729645 10.9712051,28.9745129 C11.2318316,29.5765694 11.3616358,30.2426419 11.3616358,30.9747629 C11.3616358,31.7063758 11.2318316,32.3729565 10.9712051,32.9745048 C10.7105786,33.5760532 10.3400003,34.0958032 9.85947018,34.534771 C9.37843102,34.9742468 8.80016596,35.3156661 8.124675,35.5595371 C7.448675,35.8029 6.69479247,35.9248355 5.86455452,35.9248355 L2.589925,35.9248355 L2.589925,42.1435452 L-5.09036145e-05,42.1435452 L-5.09036145e-05,26.0480613 L5.86455452,26.0480613 Z" id="Fill-8" fill="#30475E" mask="url(#mask-2)"></path>
                    <path d="M18.5698931,37.2420435 L23.9458238,37.2420435 L21.2820377,30.5843661 L18.5698931,37.2420435 Z M28.8320617,42.1433419 L26.046616,42.1433419 L24.8987395,39.4612694 L17.6414111,39.4612694 L16.4930256,42.1433419 L13.7320136,42.1433419 L20.8427395,25.7801081 L21.7218449,25.7801081 L28.8320617,42.1433419 Z" id="Fill-9" fill="#30475E" mask="url(#mask-2)"></path>
                    <polygon id="Fill-10" fill="#30475E" mask="url(#mask-2)" points="45.0313226 36.9249605 45.0313226 26.0483153 47.6218075 26.0483153 47.6218075 42.4120573 46.741684 42.4120573 36.9188136 31.266646 36.9188136 42.1432911 34.3293467 42.1432911 34.3293467 25.7800573 35.2089611 25.7800573"></polygon>
                    <path d="M62.1352425,28.1459613 C61.3039864,28.1459613 60.5343238,28.2958403 59.8262545,28.5966145 C59.1176762,28.8978968 58.5063238,29.3079048 57.9932154,29.8281629 C57.4801069,30.348929 57.0774593,30.9743565 56.7842545,31.7064774 C56.4910497,32.4375823 56.3444473,33.2266065 56.3444473,34.0715177 C56.3444473,34.9331952 56.4910497,35.7303484 56.7842545,36.4614532 C57.0774593,37.1930661 57.4801069,37.8235742 57.9932154,38.3519613 C58.5063238,38.8798403 59.1176762,39.294421 59.8262545,39.5951952 C60.5343238,39.8964774 61.3039864,40.0468645 62.1352425,40.0468645 C62.9659895,40.0468645 63.7315798,39.8964774 64.4320136,39.5951952 C65.1319383,39.294421 65.7432907,38.8798403 66.2640346,38.3519613 C66.7857967,37.8235742 67.1930256,37.1930661 67.4862304,36.4614532 C67.7794352,35.7303484 67.9260377,34.9331952 67.9260377,34.0715177 C67.9260377,33.2266065 67.7794352,32.4416468 67.4862304,31.7181629 C67.1930256,30.994679 66.7857967,30.3687435 66.2640346,29.8408645 C65.7432907,29.3124774 65.1319383,28.8978968 64.4320136,28.5966145 C63.7315798,28.2958403 62.9659895,28.1459613 62.1352425,28.1459613 M62.1102997,25.7804129 C63.283628,25.7804129 64.3831461,25.9917677 65.409363,26.4144774 C66.4350708,26.8371871 67.3309744,27.4224774 68.0970738,28.1698403 C68.8621551,28.9182194 69.4689262,29.8002194 69.916878,30.8163484 C70.3653389,31.8324774 70.5888057,32.9253242 70.5888057,34.0959048 C70.5888057,35.2827435 70.3653389,36.3847355 69.916878,37.4003565 C69.4689262,38.4164855 68.8621551,39.294421 68.0970738,40.0341629 C67.3309744,40.7739048 66.4350708,41.3556387 65.409363,41.7778403 C64.3831461,42.20055 63.283628,42.4119048 62.1102997,42.4119048 C60.9379895,42.4119048 59.8338901,42.20055 58.7995286,41.7778403 C57.7656762,41.3556387 56.8697726,40.7703484 56.1123268,40.0219694 C55.354881,39.2746065 54.7562545,38.3926065 54.3164473,37.3764774 C53.876131,36.3603484 53.6567364,35.2669935 53.6567364,34.0959048 C53.6567364,32.9253242 53.876131,31.8324774 54.3164473,30.8163484 C54.7562545,29.8002194 55.3584443,28.9182194 56.1240346,28.1698403 C56.889625,27.4224774 57.7855286,26.8371871 58.8122545,26.4144774 C59.8384714,25.9917677 60.9379895,25.7804129 62.1102997,25.7804129" id="Fill-11" fill="#30475E" mask="url(#mask-2)"></path>
                    <path d="M79.2137614,28.3404484 L79.2137614,33.6324484 L82.4395235,33.6324484 C83.3674964,33.6324484 84.080656,33.3890855 84.5774753,32.9013435 C85.0742946,32.4136016 85.3221952,31.7795371 85.3221952,30.9986419 C85.3221952,30.2182548 85.0742946,29.5806339 84.5774753,29.0847629 C84.080656,28.5883839 83.3674964,28.3404484 82.4395235,28.3404484 L79.2137614,28.3404484 Z M82.488391,26.0480613 C83.3186289,26.0480613 84.0725114,26.1664403 84.7485114,26.4021823 C85.4240024,26.6374161 86.0022675,26.974771 86.4833066,27.4137387 C86.9638367,27.8532145 87.3344151,28.3729645 87.5950416,28.9745129 C87.8556681,29.5765694 87.9854723,30.2426419 87.9854723,30.9747629 C87.9854723,32.0477952 87.7080476,32.9785694 87.1552343,33.7670855 C86.601403,34.5550935 85.8358127,35.1368274 84.8584633,35.5102548 L89.7207765,42.1435452 L86.7637855,42.1435452 L82.1463187,35.9248355 L79.2137614,35.9248355 L79.2137614,42.1435452 L76.6237855,42.1435452 L76.6237855,26.0480613 L82.488391,26.0480613 Z" id="Fill-12" fill="#30475E" mask="url(#mask-2)"></path>
                    <path d="M98.3215021,37.2420435 L103.696924,37.2420435 L101.033647,30.5843661 L98.3215021,37.2420435 Z M108.583671,42.1433419 L105.798225,42.1433419 L104.649839,39.4612694 L97.3930202,39.4612694 L96.2446346,42.1433419 L93.4836226,42.1433419 L100.59333,25.7801081 L101.472945,25.7801081 L108.583671,42.1433419 Z" id="Fill-13" fill="#30475E" mask="url(#mask-2)"></path>
                    <polygon id="Fill-14" fill="#30475E" mask="url(#mask-2)" points="129.400551 42.1435452 126.810575 42.1435452 126.810575 32.0477952 122.168675 38.0957952 121.312985 38.0957952 116.670575 32.0229 116.670575 42.1435452 114.080599 42.1435452 114.080599 25.7803113 114.960723 25.7803113 121.728358 34.7786419 128.520937 25.7803113 129.400551 25.7803113"></polygon>
                    <path d="M143.890214,28.1459613 C143.058958,28.1459613 142.289295,28.2958403 141.580717,28.5966145 C140.872139,28.8978968 140.261295,29.3079048 139.748187,29.8281629 C139.235079,30.348929 138.831922,30.9743565 138.538717,31.7064774 C138.245512,32.4375823 138.09891,33.2266065 138.09891,34.0715177 C138.09891,34.9331952 138.245512,35.7303484 138.538717,36.4614532 C138.831922,37.1930661 139.235079,37.8235742 139.748187,38.3519613 C140.261295,38.8798403 140.872139,39.294421 141.580717,39.5951952 C142.289295,39.8964774 143.058958,40.0468645 143.890214,40.0468645 C144.720452,40.0468645 145.486042,39.8964774 146.186985,39.5951952 C146.88691,39.294421 147.497753,38.8798403 148.019006,38.3519613 C148.540259,37.8235742 148.947997,37.1930661 149.241202,36.4614532 C149.534407,35.7303484 149.6805,34.9331952 149.6805,34.0715177 C149.6805,33.2266065 149.534407,32.4416468 149.241202,31.7181629 C148.947997,30.994679 148.540259,30.3687435 148.019006,29.8408645 C147.497753,29.3124774 146.88691,28.8978968 146.186985,28.5966145 C145.486042,28.2958403 144.720452,28.1459613 143.890214,28.1459613 M143.865271,25.7804129 C145.0386,25.7804129 146.138118,25.9917677 147.164335,26.4144774 C148.190042,26.8371871 149.085946,27.4224774 149.851536,28.1698403 C150.617127,28.9182194 151.223389,29.8002194 151.67185,30.8163484 C152.119802,31.8324774 152.343777,32.9253242 152.343777,34.0959048 C152.343777,35.2827435 152.119802,36.3847355 151.67185,37.4003565 C151.223389,38.4164855 150.617127,39.294421 149.851536,40.0341629 C149.085946,40.7739048 148.190042,41.3556387 147.164335,41.7778403 C146.138118,42.20055 145.0386,42.4119048 143.865271,42.4119048 C142.692452,42.4119048 141.588862,42.20055 140.5545,41.7778403 C139.520139,41.3556387 138.624235,40.7703484 137.867298,40.0219694 C137.109853,39.2746065 136.511226,38.3926065 136.07091,37.3764774 C135.631103,36.3603484 135.411708,35.2669935 135.411708,34.0959048 C135.411708,32.9253242 135.631103,31.8324774 136.07091,30.8163484 C136.511226,29.8002194 137.113416,28.9182194 137.879006,28.1698403 C138.644597,27.4224774 139.5405,26.8371871 140.566717,26.4144774 C141.592934,25.9917677 142.692452,25.7804129 143.865271,25.7804129" id="Fill-15" fill="#30475E" mask="url(#mask-2)"></path>
                    <path d="M163.241529,25.7803113 C164.430637,25.7803113 165.473143,26.0521258 166.369556,26.596771 C167.264441,27.1419242 167.957239,27.8283194 168.445914,28.6579887 L166.637818,30.0475452 C166.2143,29.4302468 165.716971,28.9506339 165.14736,28.6087065 C164.57673,28.2677952 163.941453,28.0970855 163.241529,28.0970855 C162.589962,28.0970855 162.019842,28.2550935 161.531167,28.5726339 C161.042492,28.8891581 160.797646,29.3814726 160.797646,30.0475452 C160.797646,30.3569565 160.855167,30.6206419 160.968682,30.8401258 C161.083215,31.0601177 161.237962,31.2547065 161.432923,31.4254161 C161.628902,31.5961258 161.864586,31.7510855 162.142011,31.888771 C162.418926,32.0274726 162.720276,32.1778597 163.04555,32.3404403 L164.854155,33.1690935 C165.456854,33.4459887 166.002541,33.7386339 166.491215,34.047029 C166.97989,34.3564403 167.387119,34.6932871 167.712393,35.0596016 C168.038685,35.4249 168.291167,35.8272871 168.469839,36.2667629 C168.64902,36.7057306 168.739119,37.2016016 168.739119,37.7538677 C168.739119,38.4702387 168.600152,39.1159887 168.323745,39.6926419 C168.046321,40.2703113 167.664035,40.7580532 167.175869,41.1563758 C166.686685,41.5546984 166.112492,41.8636016 165.452782,42.0830855 C164.793071,42.3025694 164.079911,42.4118032 163.315339,42.4118032 C161.962321,42.4118032 160.765068,42.0988355 159.723071,41.4734081 C158.680056,40.8474726 157.849818,39.9974806 157.230321,38.9244484 L159.06336,37.5348919 C159.291408,37.8763113 159.547962,38.2014726 159.833023,38.5103758 C160.117574,38.819279 160.431649,39.0916016 160.773721,39.3273435 C161.115794,39.5630855 161.494517,39.7500532 161.90989,39.8882468 C162.324755,40.0259323 162.785432,40.0955371 163.290396,40.0955371 C164.121652,40.0955371 164.793071,39.8963758 165.306179,39.4980532 C165.819288,39.0997306 166.075842,38.551021 166.075842,37.8519242 C166.075842,37.543021 166.018321,37.2701903 165.904806,37.0344484 C165.790782,36.7987065 165.627381,36.5914161 165.415622,36.4130855 C165.203863,36.2342468 164.955453,36.0676016 164.671411,35.9126419 C164.385842,35.7586984 164.063622,35.6001823 163.70577,35.4376016 L161.922107,34.6079323 C161.400345,34.3645694 160.912179,34.1044403 160.455574,33.8280532 C159.999986,33.5516661 159.600902,33.2346339 159.25883,32.8764484 C158.916758,32.519279 158.648495,32.1174 158.452517,31.6697952 C158.257047,31.2226984 158.159312,30.7146339 158.159312,30.1456016 C158.159312,29.4785129 158.293188,28.8774726 158.562977,28.3404484 C158.831239,27.8039323 159.197745,27.34515 159.661986,26.9630855 C160.126227,26.581021 160.66377,26.2883758 161.274613,26.08515 C161.885456,25.8814161 162.540586,25.7803113 163.241529,25.7803113" id="Fill-16" fill="#30475E" mask="url(#mask-2)"></path>
                    <path d="M116.663703,63 L115.391113,63 C111.978026,63 108.988456,61.1531855 107.373794,58.4081129 C105.759131,61.1531855 102.769562,63 99.3564744,63 C95.943387,63 92.9538178,61.1531855 91.3391551,58.4081129 C89.7244925,61.1531855 86.7349232,63 83.3218358,63 C79.9087485,63 76.9191792,61.1531855 75.3045166,58.4081129 C73.6898539,61.1531855 70.7002846,63 67.2871973,63 C63.8741099,63 60.8845407,61.1531855 59.269878,58.4081129 C57.6552154,61.1531855 54.6656461,63 51.2525587,63 L49.9799684,63 L49.9799684,60.4596774 L51.2525587,60.4596774 C54.9715768,60.4596774 57.9972877,57.4397419 57.9972877,53.7278226 L60.5424684,53.7278226 C60.5424684,57.4397419 63.5681792,60.4596774 67.2871973,60.4596774 C71.0062154,60.4596774 74.0319262,57.4397419 74.0319262,53.7278226 L76.5771069,53.7278226 C76.5771069,57.4397419 79.6028178,60.4596774 83.3218358,60.4596774 C87.0408539,60.4596774 90.0665648,57.4397419 90.0665648,53.7278226 L92.6117455,53.7278226 C92.6117455,57.4397419 95.6374563,60.4596774 99.3564744,60.4596774 C103.075492,60.4596774 106.101203,57.4397419 106.101203,53.7278226 L108.646384,53.7278226 C108.646384,57.4397419 111.672095,60.4596774 115.391113,60.4596774 L116.663703,60.4596774 L116.663703,63 Z" id="Fill-17" fill="#C1A47A" mask="url(#mask-2)"></path>
                </g>
            </g>
        </g>
    </g>
</svg>