
<svg width="30px" height="30px" viewBox="0 0 30 30" version="1.1" xmlns="http://www.w3.org/2000/svg" xmlns:xlink="http://www.w3.org/1999/xlink">
    <g id="Page-1" stroke="none" stroke-width="1" fill="none" fill-rule="evenodd">
        <g id="Titulinis" transform="translate(-286.000000, -3768.000000)" fill="#C1A47A">
            <path d="M314.091016,3796.24219 L305.545703,3796.24219 C305.908516,3795.2192 306.885449,3794.48438 308.03125,3794.48438 L311.605469,3794.48438 C312.75127,3794.48438 313.728203,3795.2192 314.091016,3796.24219 Z M290.394531,3792.72656 C291.341113,3792.72656 292.254531,3793.24506 292.721523,3794.04756 C292.878906,3794.31803 293.168242,3794.48438 293.481133,3794.48438 L295.726562,3794.48438 C296.872363,3794.48438 297.849297,3795.2192 298.212109,3796.24219 L287.757812,3796.24219 L287.757812,3795.36328 C287.757812,3793.90939 288.940645,3792.72656 290.394531,3792.72656 Z M293.751543,3786.4824 C293.584609,3786.29145 293.343437,3786.18193 293.089844,3786.18193 C292.83625,3786.18193 292.59502,3786.2915 292.428145,3786.4824 C291.928926,3787.05357 291.168672,3787.39453 290.394531,3787.39453 C288.940645,3787.39453 287.757812,3786.2117 287.757812,3784.75781 C287.757812,3783.6477 288.469727,3782.65271 289.529336,3782.28193 C289.786738,3782.19187 289.987715,3781.98738 290.073438,3781.72852 C290.15916,3781.46965 290.119785,3781.18559 289.966914,3780.95977 C289.671719,3780.52348 289.515625,3780.0133 289.515625,3779.48438 C289.515625,3778.0551 290.749902,3776.84766 292.210938,3776.84766 C292.696328,3776.84766 293.089844,3776.45414 293.089844,3775.96875 C293.089844,3774.51486 294.272676,3773.33203 295.726562,3773.33203 C297.180449,3773.33203 298.363281,3774.51486 298.363281,3775.96875 C298.363281,3776.45414 298.756797,3776.84766 299.242188,3776.84766 C300.696074,3776.84766 301.878906,3778.03049 301.878906,3779.48438 C301.878906,3780.01336 301.722871,3780.52354 301.427617,3780.95977 C301.274746,3781.18559 301.23543,3781.46959 301.321094,3781.72852 C301.406758,3781.98744 301.607793,3782.19187 301.865195,3782.28193 C302.924805,3782.65271 303.636719,3783.6477 303.636719,3784.75781 C303.636719,3786.2117 302.453887,3787.39453 301,3787.39453 C300.240566,3787.39453 299.539141,3787.07062 299.02498,3786.4824 C298.858047,3786.29145 298.616875,3786.18193 298.363281,3786.18193 C298.109688,3786.18193 297.868457,3786.2915 297.701582,3786.4824 C297.187422,3787.07062 296.485996,3787.39453 295.726562,3787.39453 C294.967129,3787.39453 294.265703,3787.07062 293.751543,3786.4824 Z M303.725137,3796.24219 L300.032617,3796.24219 C299.682227,3794.52281 298.324785,3793.16543 296.60541,3792.81498 L296.60541,3789.06141 C297.240801,3788.92875 297.841504,3788.65406 298.363223,3788.25756 C299.12084,3788.8333 300.04498,3789.15234 301,3789.15234 C301.901816,3789.15234 302.740762,3788.87895 303.439082,3788.41119 C304.604043,3788.93033 305.946836,3789.09305 307.152344,3789.13734 L307.152344,3792.81498 C305.432969,3793.16537 304.075586,3794.52281 303.725137,3796.24219 Z M308.03125,3769.75781 C311.149082,3769.75781 314.242188,3776.98934 314.242188,3782.12109 C314.242188,3785.95154 312.607832,3787.23041 308.910156,3787.37848 L308.910156,3783.54721 L311.993359,3782.03086 C312.428945,3781.81664 312.608359,3781.28988 312.394141,3780.8543 C312.180039,3780.41871 311.653164,3780.2393 311.217578,3780.45352 L308.910156,3781.5883 L308.910156,3775.96875 C308.910156,3775.48336 308.516641,3775.08984 308.03125,3775.08984 C307.545859,3775.08984 307.152344,3775.48336 307.152344,3775.96875 L307.152344,3777.84211 L305.882031,3776.99525 C305.478086,3776.72602 304.932461,3776.83512 304.663223,3777.239 C304.393926,3777.64289 304.503086,3778.18857 304.906973,3778.45781 L307.152344,3779.95477 L307.152344,3787.3773 C306.182793,3787.33687 305.401738,3787.22449 304.759551,3787.03113 C305.162383,3786.36744 305.394531,3785.58926 305.394531,3784.75781 C305.394531,3783.23906 304.601113,3781.85045 303.346504,3781.05773 C303.537812,3780.55928 303.636719,3780.02766 303.636719,3779.48438 C303.636719,3778.48131 303.298691,3777.55582 302.730859,3776.81531 C303.463691,3774.37342 305.485469,3769.75781 308.03125,3769.75781 Z M316,3782.12109 C316,3776.88299 312.820293,3768 308.03125,3768 C304.667852,3768 302.36002,3772.36143 301.275918,3775.59006 C300.895469,3775.39055 300.482676,3775.24471 300.047207,3775.16373 C299.66793,3773.12373 297.874785,3771.57422 295.726562,3771.57422 C293.578809,3771.57422 291.785957,3773.12297 291.406211,3775.16232 C289.394336,3775.52877 287.757812,3777.29092 287.757812,3779.48438 C287.757812,3780.0276 287.856777,3780.55928 288.048086,3781.05773 C286.793418,3781.85045 286,3783.23906 286,3784.75781 C286,3787.18096 287.971387,3789.15234 290.394531,3789.15234 C291.362031,3789.15234 292.318516,3788.82615 293.085508,3788.25422 C293.608223,3788.65254 294.210508,3788.92834 294.847656,3789.06135 L294.847656,3792.72656 L293.949766,3792.72656 C293.120078,3791.63121 291.800957,3790.96875 290.394531,3790.96875 C287.971387,3790.96875 286,3792.94014 286,3795.36328 L286,3797.12109 C286,3797.60648 286.393516,3798 286.878906,3798 L315.121094,3798 C315.606484,3798 316,3797.60648 316,3797.12109 C316,3794.69795 314.028613,3792.72656 311.605469,3792.72656 L308.910156,3792.72656 L308.910156,3789.13729 C313.509414,3788.96807 316,3787.02328 316,3782.12109 Z" id="Fill-1"></path>
        </g>
    </g>
</svg>